{
  "userSays": [
    {
      "id": "7e1d3be7-bcd0-49f0-af9e-ac674bc3015b",
      "data": [
        {
          "text": "I want you to answer "
        },
        {
          "text": "me",
          "meta": "@sys.ignore",
          "userDefined": false
        }
      ],
      "isTemplate": false,
      "count": 0
    },
    {
      "id": "b874523e-e701-4239-afd1-c984d66d1672",
      "data": [
        {
          "text": "answer"
        }
      ],
      "isTemplate": false,
      "count": 0
    },
    {
      "id": "ad572375-f6ed-4e95-956c-7b6b92c7f1cb",
      "data": [
        {
          "text": "answer my question"
        }
      ],
      "isTemplate": false,
      "count": 0
    },
    {
      "id": "807acc2c-abcd-4b8a-ac84-73ea3ce4ca09",
      "data": [
        {
          "text": "answer me"
        }
      ],
      "isTemplate": false,
      "count": 0
    },
    {
      "id": "10af174f-97db-470f-8b14-168b293d8f43",
      "data": [
        {
          "text": "give",
          "meta": "@sys.ignore",
          "userDefined": false
        },
        {
          "text": " me an answer"
        }
      ],
      "isTemplate": false,
      "count": 0
    },
    {
      "id": "01d698d6-2ac5-4009-8a3c-0254e85c34e1",
      "data": [
        {
          "text": "answer the question"
        }
      ],
      "isTemplate": false,
      "count": 0
    },
    {
      "id": "d2461f04-2d42-4447-aba2-086a3be53f04",
      "data": [
        {
          "text": "can you answer my question"
        }
      ],
      "isTemplate": false,
      "count": 0
    },
    {
      "id": "aabb99d9-505e-45be-b431-fff0c33cce4b",
      "data": [
        {
          "text": "tell me the answer"
        }
      ],
      "isTemplate": false,
      "count": 0
    },
    {
      "id": "5fdb314b-ba93-44f4-8ca7-ad7b5445de1d",
      "data": [
        {
          "text": "answer "
        },
        {
          "text": "it",
          "meta": "@sys.ignore",
          "userDefined": false
        }
      ],
      "isTemplate": false,
      "count": 0
    },
    {
      "id": "8d505d67-3943-441e-8548-cd11c855469e",
      "data": [
        {
          "text": "give",
          "meta": "@sys.ignore",
          "userDefined": false
        },
        {
          "text": " me the answer"
        }
      ],
      "isTemplate": false,
      "count": 0
    },
    {
      "id": "4d96d047-0400-430c-8c5b-6d76ba57606b",
      "data": [
        {
          "text": "I have a question"
        }
      ],
      "isTemplate": false,
      "count": 0
    },
    {
      "id": "03c2d471-109b-43b5-ad63-4d0ade7c032f",
      "data": [
        {
          "text": "I want you to answer my question"
        }
      ],
      "isTemplate": false,
      "count": 0
    },
    {
      "id": "02d23182-3e47-4c47-9f3e-4f74d7e5c6cb",
      "data": [
        {
          "text": "just answer the question"
        }
      ],
      "isTemplate": false,
      "count": 0
    },
    {
      "id": "6f823d09-5801-47ff-a982-8fe9de103f9f",
      "data": [
        {
          "text": "can you answer me"
        }
      ],
      "isTemplate": false,
      "count": 0
    },
    {
      "id": "7f140fd0-8937-41a6-935a-a209c85035c8",
      "data": [
        {
          "text": "answers"
        }
      ],
      "isTemplate": false,
      "count": 0
    },
    {
      "id": "894f28d6-6082-4746-a017-372960d3eea6",
      "data": [
        {
          "text": "can you answer a question for me"
        }
      ],
      "isTemplate": false,
      "count": 0
    },
    {
      "id": "6504a770-430a-456f-87d7-16a6d03418e0",
      "data": [
        {
          "text": "can you answer"
        }
      ],
      "isTemplate": false,
      "count": 0
    },
    {
      "id": "b30a85a9-8125-4c07-8743-b3002442fb16",
      "data": [
        {
          "text": "answering questions"
        }
      ],
      "isTemplate": false,
      "count": 0
    },
    {
      "id": "f98a12d3-9920-44ab-9da5-7d86fcc85708",
      "data": [
        {
          "text": "I want the answer now"
        }
      ],
      "isTemplate": false,
      "count": 0
    },
    {
      "id": "4a70c9bd-9712-4b3f-a109-8db2a584cdb4",
      "data": [
        {
          "text": "just answer my question"
        }
      ],
      "isTemplate": false,
      "count": 0
    }
  ],
  "id": "e2eb7f8d-b37b-4db5-8c0e-4ded1662537a",
  "name": "agent.answer_my_question",
  "auto": true,
  "contexts": [
    "smalltalk"
  ],
  "responses": [
    {
      "resetContexts": false,
      "action": "agent.answer_my_question",
      "affectedContexts": [],
      "parameters": [],
      "messages": [
        {
          "type": 0,
          "speech": [
            "Can you try asking it a different way? 😥",
            "I\u0027m not programmed for that exact question. Try asking another way? 😥",
            "It\u0027s a bit difficult to understand! Can you change the wording? 😰"
          ]
        }
      ],
      "defaultResponsePlatforms": {}
    }
  ],
  "priority": 500000,
  "webhookUsed": false,
  "webhookForSlotFilling": false,
  "fallbackIntent": false,
  "events": []
}