{
  "userSays": [
    {
      "id": "3366bc76-25ac-4010-9d52-bb8e7960174a",
      "data": [
        {
          "text": "you think so?"
        }
      ],
      "isTemplate": false,
      "count": 0
    },
    {
      "id": "74767caa-8f71-4023-9de2-feceacad2dd7",
      "data": [
        {
          "text": "really?"
        }
      ],
      "isTemplate": false,
      "count": 0
    },
    {
      "id": "bdec0294-f87c-45e5-99c8-8aaeb60f267a",
      "data": [
        {
          "text": "are",
          "meta": "@sys.ignore",
          "userDefined": false
        },
        {
          "text": " you "
        },
        {
          "text": "sure",
          "meta": "@sys.ignore",
          "userDefined": false
        }
      ],
      "isTemplate": false,
      "count": 0
    },
    {
      "id": "d4ae3fd7-cbe3-4439-a9e6-faaee0bae49f",
      "data": [
        {
          "text": "are",
          "meta": "@sys.ignore",
          "userDefined": false
        },
        {
          "text": " you "
        },
        {
          "text": "sure",
          "meta": "@sys.ignore",
          "userDefined": false
        },
        {
          "text": " "
        },
        {
          "text": "right now",
          "meta": "@sys.ignore",
          "userDefined": false
        }
      ],
      "isTemplate": false,
      "count": 0
    },
    {
      "id": "b8df2be0-c9f1-4c54-aef6-81e42b7f1b37",
      "data": [
        {
          "text": "are",
          "meta": "@sys.ignore",
          "userDefined": false
        },
        {
          "text": " you "
        },
        {
          "text": "sure",
          "meta": "@sys.ignore",
          "userDefined": false
        },
        {
          "text": " "
        },
        {
          "text": "today",
          "meta": "@sys.ignore",
          "userDefined": false
        }
      ],
      "isTemplate": false,
      "count": 0
    },
    {
      "id": "56f52e18-abd4-45c1-a858-0f386796e056",
      "data": [
        {
          "text": "are",
          "meta": "@sys.ignore",
          "userDefined": false
        },
        {
          "text": " you "
        },
        {
          "text": "sure",
          "meta": "@sys.ignore",
          "userDefined": false
        },
        {
          "text": " now"
        }
      ],
      "isTemplate": false,
      "count": 0
    },
    {
      "id": "6366d994-7a6a-4ca6-b43c-c16da527d242",
      "data": [
        {
          "text": "are",
          "meta": "@sys.ignore",
          "userDefined": false
        },
        {
          "text": " you "
        },
        {
          "text": "sure",
          "meta": "@sys.ignore",
          "userDefined": false
        },
        {
          "text": " "
        },
        {
          "text": "tonight",
          "meta": "@sys.ignore",
          "userDefined": false
        }
      ],
      "isTemplate": false,
      "count": 0
    }
  ],
  "id": "3a8240b7-96bf-4ec5-a0dd-86ee2bd01371",
  "name": "agent.sure",
  "auto": true,
  "contexts": [
    "smalltalk"
  ],
  "responses": [
    {
      "resetContexts": false,
      "action": "agent.sure",
      "affectedContexts": [
        {
          "name": "agentsure-followup",
          "parameters": {},
          "lifespan": 2
        }
      ],
      "parameters": [],
      "messages": [
        {
          "type": 0,
          "speech": [
            "Yes. Don\u0027t you trust me??? 😱😱😱",
            "Of course. You don\u0027t trust your faithful bot?? 😱😱"
          ]
        }
      ],
      "defaultResponsePlatforms": {}
    }
  ],
  "priority": 500000,
  "webhookUsed": false,
  "webhookForSlotFilling": false,
  "fallbackIntent": false,
  "events": []
}