{
  "userSays": [
    {
      "id": "54938af1-b325-4e35-89fc-5d1679448932",
      "data": [
        {
          "text": "yeah"
        }
      ],
      "isTemplate": false,
      "count": 0
    },
    {
      "id": "1cb48fe2-ebf3-4e5a-a2da-b85392547af6",
      "data": [
        {
          "text": "yea"
        }
      ],
      "isTemplate": false,
      "count": 0
    },
    {
      "id": "1cc0a5b5-e47a-4878-9976-de3ffd28d778",
      "data": [
        {
          "text": "yes"
        }
      ],
      "isTemplate": false,
      "count": 0
    },
    {
      "id": "942ca518-c590-4ac8-9b80-90cd2bc46423",
      "data": [
        {
          "text": "sure"
        }
      ],
      "isTemplate": false,
      "count": 2
    },
    {
      "id": "4bc65ccc-ae5b-461e-beb0-ce2ee60c81a5",
      "data": [
        {
          "text": "exactly"
        }
      ],
      "isTemplate": false,
      "count": 0
    },
    {
      "id": "3615624d-6b6c-4b73-aaf4-c8b9a95485c9",
      "data": [
        {
          "text": "of course"
        }
      ],
      "isTemplate": false,
      "count": 0
    },
    {
      "id": "c35a2ea1-c4c3-4098-98b6-2d1352411ed8",
      "data": [
        {
          "text": "that\u0027s correct"
        }
      ],
      "isTemplate": false,
      "count": 0
    },
    {
      "id": "505c4163-58c9-413a-9925-7223e290d754",
      "data": [
        {
          "text": "I agree"
        }
      ],
      "isTemplate": false,
      "count": 1
    }
  ],
  "id": "08a08f5b-b56a-4100-bd11-08d1f946ef29",
  "parentId": "f20ee20c-2f24-49b0-a8cf-77da6cccbc33",
  "rootParentId": "f20ee20c-2f24-49b0-a8cf-77da6cccbc33",
  "name": "agent.real - yes",
  "auto": true,
  "contexts": [
    "agentreal-followup"
  ],
  "responses": [
    {
      "resetContexts": false,
      "action": "agentreal.agentreal-yes",
      "affectedContexts": [
        {
          "name": "agentreal-yes-followup",
          "parameters": {},
          "lifespan": 2
        }
      ],
      "parameters": [],
      "messages": [
        {
          "type": 0,
          "speech": [
            "BOOOO! I am a bot!! 😛😛",
            "BOOO! I\u0027m not human!! 😜",
            "You guessed it wrong!! I am a bot! 😜😜"
          ]
        }
      ],
      "defaultResponsePlatforms": {}
    }
  ],
  "priority": 500000,
  "webhookUsed": false,
  "webhookForSlotFilling": false,
  "fallbackIntent": false,
  "events": []
}