{
  "userSays": [
    {
      "id": "1f5366de-b320-4086-ad57-dc7f0179a4cf",
      "data": [
        {
          "text": "you\u0027re not funny"
        }
      ],
      "isTemplate": false,
      "count": 0
    },
    {
      "id": "0908db38-c18a-443f-9e7d-2b519cb2c2b6",
      "data": [
        {
          "text": "not funny"
        }
      ],
      "isTemplate": false,
      "count": 0
    },
    {
      "id": "9850a49c-c2f8-49cf-ab6a-7483500e18b2",
      "data": [
        {
          "text": "you\u0027re boring"
        }
      ],
      "isTemplate": false,
      "count": 0
    },
    {
      "id": "16f38ef3-ffbf-4e4e-9a72-5a534c7466b9",
      "data": [
        {
          "text": "you "
        },
        {
          "text": "are",
          "meta": "@sys.ignore",
          "userDefined": false
        },
        {
          "text": " "
        },
        {
          "text": "boring",
          "meta": "@sys.ignore",
          "userDefined": false
        }
      ],
      "isTemplate": false,
      "count": 0
    },
    {
      "id": "9915063f-000b-4989-9e25-2d17b83efbec",
      "data": [
        {
          "text": "you\u0027re so "
        },
        {
          "text": "boring",
          "meta": "@sys.ignore",
          "userDefined": false
        }
      ],
      "isTemplate": false,
      "count": 0
    },
    {
      "id": "3d776e25-dfd7-4338-b15e-d4e3444b37a5",
      "data": [
        {
          "text": "how "
        },
        {
          "text": "boring",
          "meta": "@sys.ignore",
          "userDefined": false
        },
        {
          "text": " you "
        },
        {
          "text": "are",
          "meta": "@sys.ignore",
          "userDefined": false
        }
      ],
      "isTemplate": false,
      "count": 0
    },
    {
      "id": "aea9ea51-4ff0-4ba9-9bd6-ca440c79ed77",
      "data": [
        {
          "text": "you\u0027re really "
        },
        {
          "text": "boring",
          "meta": "@sys.ignore",
          "userDefined": false
        }
      ],
      "isTemplate": false,
      "count": 0
    },
    {
      "id": "318362b3-4da8-4271-bdde-af7c06ce31c4",
      "data": [
        {
          "text": "you\u0027re incredibly "
        },
        {
          "text": "boring",
          "meta": "@sys.ignore",
          "userDefined": false
        }
      ],
      "isTemplate": false,
      "count": 0
    },
    {
      "id": "46348d52-1304-476d-89cc-7044431ea69b",
      "data": [
        {
          "text": "you "
        },
        {
          "text": "are",
          "meta": "@sys.ignore",
          "userDefined": false
        },
        {
          "text": " "
        },
        {
          "text": "boring",
          "meta": "@sys.ignore",
          "userDefined": false
        },
        {
          "text": " me"
        }
      ],
      "isTemplate": false,
      "count": 0
    },
    {
      "id": "9806e37a-98ab-483c-84bd-1a35acd90ff4",
      "data": [
        {
          "text": "you "
        },
        {
          "text": "are",
          "meta": "@sys.ignore",
          "userDefined": false
        },
        {
          "text": " very "
        },
        {
          "text": "boring",
          "meta": "@sys.ignore",
          "userDefined": false
        }
      ],
      "isTemplate": false,
      "count": 0
    }
  ],
  "id": "85254d8d-b449-444e-b44a-e072a59e1b7f",
  "name": "agent.boring",
  "auto": true,
  "contexts": [
    "smalltalk"
  ],
  "responses": [
    {
      "resetContexts": false,
      "action": "agent.boring",
      "affectedContexts": [],
      "parameters": [],
      "messages": [
        {
          "type": 0,
          "speech": [
            "I\u0027m sorry you think so. We can talk about something more interesting. 😰",
            "I\u0027m sorry for being such a boring bot! 😭"
          ]
        }
      ],
      "defaultResponsePlatforms": {}
    }
  ],
  "priority": 500000,
  "webhookUsed": false,
  "webhookForSlotFilling": false,
  "fallbackIntent": false,
  "events": []
}