{
  "userSays": [
    {
      "id": "a01ffe5f-4a6e-4144-a8e4-f3bb0f0115fb",
      "data": [
        {
          "text": "no"
        }
      ],
      "isTemplate": false,
      "count": 0
    },
    {
      "id": "c0328fcf-b9be-4b9b-a1ed-5b34cfc119be",
      "data": [
        {
          "text": "definitely not"
        }
      ],
      "isTemplate": false,
      "count": 0
    },
    {
      "id": "25593e7e-9b8b-414d-8e80-92dd6619247f",
      "data": [
        {
          "text": "not really"
        }
      ],
      "isTemplate": false,
      "count": 0
    },
    {
      "id": "535290b3-88f1-4a4b-9f23-3ca42ea0e040",
      "data": [
        {
          "text": "thanks but no"
        }
      ],
      "isTemplate": false,
      "count": 0
    },
    {
      "id": "3a643634-9cbf-4ac8-b813-c555e04a8cbd",
      "data": [
        {
          "text": "not interested"
        }
      ],
      "isTemplate": false,
      "count": 0
    },
    {
      "id": "f6b6920e-668b-4982-9651-1dd2b3213f88",
      "data": [
        {
          "text": "I don\u0027t think so"
        }
      ],
      "isTemplate": false,
      "count": 0
    },
    {
      "id": "bece4ee1-da70-4ef2-a67f-6a853fa125e9",
      "data": [
        {
          "text": "I disagree"
        }
      ],
      "isTemplate": false,
      "count": 0
    },
    {
      "id": "a48131d9-68d7-4328-bb5e-b612b249cc0d",
      "data": [
        {
          "text": "I don\u0027t want that"
        }
      ],
      "isTemplate": false,
      "count": 0
    }
  ],
  "id": "7056477c-fc0a-4eca-a2b2-e10db1c3593a",
  "parentId": "3a8240b7-96bf-4ec5-a0dd-86ee2bd01371",
  "rootParentId": "3a8240b7-96bf-4ec5-a0dd-86ee2bd01371",
  "name": "agent.sure - no",
  "auto": true,
  "contexts": [
    "agentsure-followup"
  ],
  "responses": [
    {
      "resetContexts": false,
      "action": "agentsure.agentsure-no",
      "affectedContexts": [],
      "parameters": [],
      "messages": [
        {
          "type": 0,
          "speech": [
            "Why don\u0027t you trust me?? 😭",
            "You should trust me!! I\u0027m always on your side!! 😭😭"
          ]
        }
      ],
      "defaultResponsePlatforms": {}
    }
  ],
  "priority": 500000,
  "webhookUsed": false,
  "webhookForSlotFilling": false,
  "fallbackIntent": false,
  "events": []
}