{
  "userSays": [
    {
      "id": "f3ab920f-87da-4e32-9f53-e36a9bb0c65b",
      "data": [
        {
          "text": "cos"
        }
      ],
      "isTemplate": false,
      "count": 0
    },
    {
      "id": "62056d95-3803-4dc3-b8b0-1e61b7c7ca06",
      "data": [
        {
          "text": "cuz"
        }
      ],
      "isTemplate": false,
      "count": 0
    },
    {
      "id": "2c5b53c0-ef30-42aa-9806-adb4703b9367",
      "data": [
        {
          "text": "that\u0027s because"
        }
      ],
      "isTemplate": false,
      "count": 0
    },
    {
      "id": "6633d522-4075-4e54-a6cf-44e851859061",
      "data": [
        {
          "text": "because"
        }
      ],
      "isTemplate": false,
      "count": 0
    }
  ],
  "id": "eab702db-4df8-477f-94ff-a0389aa71c6f",
  "parentId": "c35ebca9-a4fa-4c6b-903b-95ff5a45e06f",
  "rootParentId": "a9c31588-e1b6-4992-a514-6205f1a5870e",
  "name": "agent.chatbot - yes - because",
  "auto": true,
  "contexts": [
    "agentchatbot-yes-followup"
  ],
  "responses": [
    {
      "resetContexts": false,
      "action": "agentchatbot.agentchatbot-yes.agentchatbot-yes-custom",
      "affectedContexts": [],
      "parameters": [],
      "messages": [
        {
          "type": 0,
          "speech": [
            "Impossibru!!! 😱😱😱",
            "No way!!! 😱😱😱",
            "It can\u0027t be!!! 😱😱😱"
          ]
        }
      ],
      "defaultResponsePlatforms": {}
    }
  ],
  "priority": 500000,
  "webhookUsed": false,
  "webhookForSlotFilling": false,
  "fallbackIntent": false,
  "events": []
}