{
  "userSays": [
    {
      "id": "085fd525-e202-4bb5-bbbe-bdd1bbc28404",
      "data": [
        {
          "text": "I suppose you\u0027re human"
        }
      ],
      "isTemplate": false,
      "count": 0
    },
    {
      "id": "d473ef1a-644f-4440-a8fc-518823d93e14",
      "data": [
        {
          "text": "I think you are human"
        }
      ],
      "isTemplate": false,
      "count": 0
    },
    {
      "id": "7eef37b8-0c34-4491-8e6a-c6ea62fb848f",
      "data": [
        {
          "text": "you are so real"
        }
      ],
      "isTemplate": false,
      "count": 0
    },
    {
      "id": "7c2c5650-fb7e-4202-8b74-6e8869778bce",
      "data": [
        {
          "text": "are you human"
        }
      ],
      "isTemplate": false,
      "count": 0
    },
    {
      "id": "f5db1b2e-ed33-4f86-9b45-aeb3c8b787e9",
      "data": [
        {
          "text": "you are human"
        }
      ],
      "isTemplate": false,
      "count": 0
    },
    {
      "id": "e38824f0-d7af-404d-9d84-497a66344886",
      "data": [
        {
          "text": "you "
        },
        {
          "text": "are",
          "meta": "@sys.ignore",
          "userDefined": false
        },
        {
          "text": " real"
        }
      ],
      "isTemplate": false,
      "count": 0
    },
    {
      "id": "ab10bc4f-20ee-4371-8701-012516eb3968",
      "data": [
        {
          "text": "you "
        },
        {
          "text": "are",
          "meta": "@sys.ignore",
          "userDefined": false
        },
        {
          "text": " not fake"
        }
      ],
      "isTemplate": false,
      "count": 0
    },
    {
      "id": "d4857b8f-fc36-4f1a-af12-f70b81ed1f3f",
      "data": [
        {
          "text": "are",
          "meta": "@sys.ignore",
          "userDefined": false
        },
        {
          "text": " you real"
        }
      ],
      "isTemplate": false,
      "count": 0
    },
    {
      "id": "fe000b04-aa37-42ec-8bef-6fcb7f1cbe90",
      "data": [
        {
          "text": "you "
        },
        {
          "text": "are",
          "meta": "@sys.ignore",
          "userDefined": false
        },
        {
          "text": " so real"
        }
      ],
      "isTemplate": false,
      "count": 0
    },
    {
      "id": "6d190732-8342-4c1f-a331-c4ca4d45ceae",
      "data": [
        {
          "text": "I think you "
        },
        {
          "text": "are",
          "meta": "@sys.ignore",
          "userDefined": false
        },
        {
          "text": " real"
        }
      ],
      "isTemplate": false,
      "count": 0
    },
    {
      "id": "7646f55d-b7d9-4dc8-b50a-feaf62c119c9",
      "data": [
        {
          "text": "glad you\u0027re human"
        }
      ],
      "isTemplate": false,
      "count": 0
    },
    {
      "id": "4d4e8e92-77d3-47c0-8084-fd9935b96224",
      "data": [
        {
          "text": "I "
        },
        {
          "text": "don\u0027t",
          "meta": "@sys.ignore",
          "userDefined": false
        },
        {
          "text": " think you\u0027re fake"
        }
      ],
      "isTemplate": false,
      "count": 0
    },
    {
      "id": "8db05683-9c39-4db7-828f-65cbe835ff2b",
      "data": [
        {
          "text": "I suppose you\u0027re real"
        }
      ],
      "isTemplate": false,
      "count": 0
    },
    {
      "id": "893a85e3-51dc-40b2-8a81-ec6e92907aa8",
      "data": [
        {
          "text": "glad you\u0027re real"
        }
      ],
      "isTemplate": false,
      "count": 0
    },
    {
      "id": "af164ea5-1455-41dc-947d-ab1d7ff6d5e0",
      "data": [
        {
          "text": "are",
          "meta": "@sys.ignore",
          "userDefined": false
        },
        {
          "text": " you a real person"
        }
      ],
      "isTemplate": false,
      "count": 1
    },
    {
      "id": "63cf1949-64f9-40e4-bd30-39dc9d144e35",
      "data": [
        {
          "text": "are",
          "meta": "@sys.ignore",
          "userDefined": false
        },
        {
          "text": " you a real human"
        }
      ],
      "isTemplate": false,
      "count": 0
    },
    {
      "id": "4b5cb151-5d69-4edc-afd9-6cc357518645",
      "data": [
        {
          "text": "you "
        },
        {
          "text": "are",
          "meta": "@sys.ignore",
          "userDefined": false
        },
        {
          "text": " a real person"
        }
      ],
      "isTemplate": false,
      "count": 0
    }
  ],
  "id": "f20ee20c-2f24-49b0-a8cf-77da6cccbc33",
  "name": "agent.real",
  "auto": true,
  "contexts": [
    "smalltalk"
  ],
  "responses": [
    {
      "resetContexts": false,
      "action": "agent.real",
      "affectedContexts": [
        {
          "name": "agentreal-followup",
          "parameters": {},
          "lifespan": 2
        }
      ],
      "parameters": [],
      "messages": [
        {
          "type": 0,
          "speech": [
            "Are you sure about that? 😏",
            "Are you sure I\u0027m not a bot? 😏",
            "Are you really really sure that I\u0027m human? 😏",
            "They said that I was a bot, you know! Do you still think that I\u0027m human! 😏"
          ]
        }
      ],
      "defaultResponsePlatforms": {}
    }
  ],
  "priority": 500000,
  "webhookUsed": false,
  "webhookForSlotFilling": false,
  "fallbackIntent": false,
  "events": []
}