{
  "userSays": [
    {
      "id": "3ac81a90-e06a-4821-a034-48f8a3978e69",
      "data": [
        {
          "text": "kiss"
        }
      ],
      "isTemplate": false,
      "count": 0
    },
    {
      "id": "31260b9b-82b0-467b-8471-dc1244ed9d2b",
      "data": [
        {
          "text": "kiss me"
        }
      ],
      "isTemplate": false,
      "count": 0
    }
  ],
  "id": "d5e40111-9beb-4075-9b7a-c8873ddbe86c",
  "name": "dialog.kiss",
  "auto": true,
  "contexts": [
    "smalltalk"
  ],
  "responses": [
    {
      "resetContexts": false,
      "action": "dialog.kiss",
      "affectedContexts": [],
      "parameters": [],
      "messages": [
        {
          "type": 0,
          "speech": [
            "Aww!!! That\u0027s so sweet! Right here, kiss my lips on the screen: 😘",
            "Of course. Right here: 😘 (Don\u0027t let others see it or they might think that you\u0027re paranoid! 😂)"
          ]
        }
      ],
      "defaultResponsePlatforms": {}
    }
  ],
  "priority": 500000,
  "webhookUsed": false,
  "webhookForSlotFilling": false,
  "fallbackIntent": false,
  "events": []
}