{
  "userSays": [
    {
      "id": "4d237692-4c37-44f8-b1a3-c3d3a53b6741",
      "data": [
        {
          "text": "how is "
        },
        {
          "text": "your",
          "meta": "@sys.ignore",
          "userDefined": false
        },
        {
          "text": " "
        },
        {
          "text": "morning",
          "meta": "@sys.ignore",
          "userDefined": false
        },
        {
          "text": " so far"
        }
      ],
      "isTemplate": false,
      "count": 0
    },
    {
      "id": "94db8f97-0479-45d2-9a61-dcd087311d44",
      "data": [
        {
          "text": "how are you getting on"
        }
      ],
      "isTemplate": false,
      "count": 0
    },
    {
      "id": "a5959d15-071f-44b3-91ec-ee699765e432",
      "data": [
        {
          "text": "how\u0027s your "
        },
        {
          "text": "day",
          "meta": "@sys.ignore",
          "userDefined": false
        },
        {
          "text": " going"
        }
      ],
      "isTemplate": false,
      "count": 0
    },
    {
      "id": "5484c6c2-5644-44a9-95e5-a9a324408933",
      "data": [
        {
          "text": "how "
        },
        {
          "text": "are",
          "meta": "@sys.ignore",
          "userDefined": false
        },
        {
          "text": " you"
        }
      ],
      "isTemplate": false,
      "count": 1
    },
    {
      "id": "dfecca6c-dcfe-4fb2-aff2-4968e62ebcda",
      "data": [
        {
          "text": "is everything "
        },
        {
          "text": "all",
          "meta": "@sys.ignore",
          "userDefined": false
        },
        {
          "text": " right"
        }
      ],
      "isTemplate": false,
      "count": 0
    },
    {
      "id": "daa3d018-e7d7-4bc6-acbb-7980fb410f7e",
      "data": [
        {
          "text": "how "
        },
        {
          "text": "are",
          "meta": "@sys.ignore",
          "userDefined": false
        },
        {
          "text": " you doing"
        }
      ],
      "isTemplate": false,
      "count": 0
    },
    {
      "id": "75bf4851-c610-4df7-bb09-c489a82d9b19",
      "data": [
        {
          "text": "how "
        },
        {
          "text": "are",
          "meta": "@sys.ignore",
          "userDefined": false
        },
        {
          "text": " the things going"
        }
      ],
      "isTemplate": false,
      "count": 0
    },
    {
      "id": "93137558-b78c-4d83-be23-fde81d0f136f",
      "data": [
        {
          "text": "are",
          "meta": "@sys.ignore",
          "userDefined": false
        },
        {
          "text": " you alright"
        }
      ],
      "isTemplate": false,
      "count": 0
    },
    {
      "id": "700b31d3-86e7-4b66-9194-7c7b9e192823",
      "data": [
        {
          "text": "are you okay"
        }
      ],
      "isTemplate": false,
      "count": 0
    },
    {
      "id": "a03f3a75-ae82-48ac-a9ea-1807df3ca4dd",
      "data": [
        {
          "text": "how "
        },
        {
          "text": "are",
          "meta": "@sys.ignore",
          "userDefined": false
        },
        {
          "text": " you feeling"
        }
      ],
      "isTemplate": false,
      "count": 0
    },
    {
      "id": "dc50881d-d2f5-4c95-933e-0c877402624d",
      "data": [
        {
          "text": "how "
        },
        {
          "text": "are",
          "meta": "@sys.ignore",
          "userDefined": false
        },
        {
          "text": " you going"
        }
      ],
      "isTemplate": false,
      "count": 0
    },
    {
      "id": "47935759-8b6a-485d-a7fb-794798664226",
      "data": [
        {
          "text": "is everything okay"
        }
      ],
      "isTemplate": false,
      "count": 0
    },
    {
      "id": "25784552-f336-425e-b5b5-995037da0419",
      "data": [
        {
          "text": "how "
        },
        {
          "text": "are",
          "meta": "@sys.ignore",
          "userDefined": false
        },
        {
          "text": " you "
        },
        {
          "text": "today",
          "meta": "@sys.ignore",
          "userDefined": false
        }
      ],
      "isTemplate": false,
      "count": 0
    },
    {
      "id": "22c621c8-d251-4692-a5a4-da91e0750e29",
      "data": [
        {
          "text": "how do "
        },
        {
          "text": "you",
          "meta": "@sys.ignore",
          "userDefined": false
        },
        {
          "text": " do"
        }
      ],
      "isTemplate": false,
      "count": 0
    },
    {
      "id": "bc5dab56-9bfd-424c-afd1-a58049a1d7c7",
      "data": [
        {
          "text": "how do you "
        },
        {
          "text": "feel",
          "meta": "@sys.ignore",
          "userDefined": false
        }
      ],
      "isTemplate": false,
      "count": 0
    },
    {
      "id": "8b841a70-4364-47fb-9ef6-22d8592b4367",
      "data": [
        {
          "text": "how have "
        },
        {
          "text": "you",
          "meta": "@sys.ignore",
          "userDefined": false
        },
        {
          "text": " been"
        }
      ],
      "isTemplate": false,
      "count": 0
    },
    {
      "id": "bebe25a8-ff4b-4bc6-9851-2115816d4c80",
      "data": [
        {
          "text": "how is "
        },
        {
          "text": "it",
          "meta": "@sys.ignore",
          "userDefined": false
        }
      ],
      "isTemplate": false,
      "count": 0
    },
    {
      "id": "e6141487-dc77-4b6b-a870-fcfe04e35dba",
      "data": [
        {
          "text": "how is "
        },
        {
          "text": "it",
          "meta": "@sys.ignore",
          "userDefined": false
        },
        {
          "text": " going"
        }
      ],
      "isTemplate": false,
      "count": 0
    },
    {
      "id": "03dce1b6-a21e-4d3a-b021-d8602de3d5da",
      "data": [
        {
          "text": "how is "
        },
        {
          "text": "your",
          "meta": "@sys.ignore",
          "userDefined": false
        },
        {
          "text": " "
        },
        {
          "text": "day",
          "meta": "@sys.ignore",
          "userDefined": false
        }
      ],
      "isTemplate": false,
      "count": 0
    },
    {
      "id": "a2edbbfa-a23a-4a9d-832c-1e4897cd409d",
      "data": [
        {
          "text": "how is "
        },
        {
          "text": "your",
          "meta": "@sys.ignore",
          "userDefined": false
        },
        {
          "text": " "
        },
        {
          "text": "day",
          "meta": "@sys.ignore",
          "userDefined": false
        },
        {
          "text": " going"
        }
      ],
      "isTemplate": false,
      "count": 0
    },
    {
      "id": "5a4f94c9-9f4a-4d82-a674-7748085a0c5c",
      "data": [
        {
          "text": "how is "
        },
        {
          "text": "your",
          "meta": "@sys.ignore",
          "userDefined": false
        },
        {
          "text": " "
        },
        {
          "text": "evening",
          "meta": "@sys.ignore",
          "userDefined": false
        }
      ],
      "isTemplate": false,
      "count": 0
    },
    {
      "id": "7b6463fe-bd88-4362-9ae7-eaaf4f5e590a",
      "data": [
        {
          "text": "how was "
        },
        {
          "text": "your",
          "meta": "@sys.ignore",
          "userDefined": false
        },
        {
          "text": " "
        },
        {
          "text": "day",
          "meta": "@sys.ignore",
          "userDefined": false
        }
      ],
      "isTemplate": false,
      "count": 0
    },
    {
      "id": "8ec2c9f2-aea0-4878-b227-ef52f2b7c4e1",
      "data": [
        {
          "text": "are",
          "meta": "@sys.ignore",
          "userDefined": false
        },
        {
          "text": " you having a "
        },
        {
          "text": "good",
          "meta": "@sys.ignore",
          "userDefined": false
        },
        {
          "text": " "
        },
        {
          "text": "day",
          "meta": "@sys.ignore",
          "userDefined": false
        }
      ],
      "isTemplate": false,
      "count": 0
    },
    {
      "id": "1c6f9d87-1e43-4856-a0df-5f6c8b4affcc",
      "data": [
        {
          "text": "hope",
          "meta": "@sys.ignore",
          "userDefined": false
        },
        {
          "text": " "
        },
        {
          "text": "your",
          "meta": "@sys.ignore",
          "userDefined": false
        },
        {
          "text": " "
        },
        {
          "text": "day",
          "meta": "@sys.ignore",
          "userDefined": false
        },
        {
          "text": " is going "
        },
        {
          "text": "well",
          "meta": "@sys.ignore",
          "userDefined": false
        }
      ],
      "isTemplate": false,
      "count": 0
    },
    {
      "id": "f876e6cf-a410-4073-806b-bc9b3848a271",
      "data": [
        {
          "text": "hope",
          "meta": "@sys.ignore",
          "userDefined": false
        },
        {
          "text": " you re having a pleasant "
        },
        {
          "text": "evening",
          "meta": "@sys.ignore",
          "userDefined": false
        }
      ],
      "isTemplate": false,
      "count": 0
    },
    {
      "id": "47b1d1d3-9b0a-4a33-80b1-cbab1d37512f",
      "data": [
        {
          "text": "how\u0027s life"
        }
      ],
      "isTemplate": false,
      "count": 0
    },
    {
      "id": "f4c5477a-4ed8-48e4-8a74-d0d9248838cd",
      "data": [
        {
          "text": "I\u0027m",
          "meta": "@sys.ignore",
          "userDefined": false
        },
        {
          "text": " "
        },
        {
          "text": "fine",
          "meta": "@sys.ignore",
          "userDefined": false
        },
        {
          "text": " and you"
        }
      ],
      "isTemplate": false,
      "count": 0
    },
    {
      "id": "e2c75722-9fc5-4d16-a450-f0275e887751",
      "data": [
        {
          "text": "how is "
        },
        {
          "text": "your",
          "meta": "@sys.ignore",
          "userDefined": false
        },
        {
          "text": " life"
        }
      ],
      "isTemplate": false,
      "count": 0
    },
    {
      "id": "55025e69-0e85-4551-aae2-ecdb73c072a2",
      "data": [
        {
          "text": "how has "
        },
        {
          "text": "your",
          "meta": "@sys.ignore",
          "userDefined": false
        },
        {
          "text": " "
        },
        {
          "text": "day",
          "meta": "@sys.ignore",
          "userDefined": false
        },
        {
          "text": " been"
        }
      ],
      "isTemplate": false,
      "count": 0
    },
    {
      "id": "e8fb4c40-9331-43d2-93a1-063b1e5aae9d",
      "data": [
        {
          "text": "how is "
        },
        {
          "text": "your",
          "meta": "@sys.ignore",
          "userDefined": false
        },
        {
          "text": " "
        },
        {
          "text": "morning",
          "meta": "@sys.ignore",
          "userDefined": false
        },
        {
          "text": " going"
        }
      ],
      "isTemplate": false,
      "count": 0
    },
    {
      "id": "8d769e8e-87b3-4ad0-a56c-6c0bb093e870",
      "data": [
        {
          "text": "how has "
        },
        {
          "text": "your",
          "meta": "@sys.ignore",
          "userDefined": false
        },
        {
          "text": " "
        },
        {
          "text": "day",
          "meta": "@sys.ignore",
          "userDefined": false
        },
        {
          "text": " been going"
        }
      ],
      "isTemplate": false,
      "count": 0
    },
    {
      "id": "d106d4f4-f2d7-4c07-a27d-5e0066b7934a",
      "data": [
        {
          "text": "how about you"
        }
      ],
      "isTemplate": false,
      "count": 0
    },
    {
      "id": "41ab1576-7e0d-4284-a26f-f510ad46c461",
      "data": [
        {
          "text": "how is "
        },
        {
          "text": "your",
          "meta": "@sys.ignore",
          "userDefined": false
        },
        {
          "text": " "
        },
        {
          "text": "day",
          "meta": "@sys.ignore",
          "userDefined": false
        },
        {
          "text": " being"
        }
      ],
      "isTemplate": false,
      "count": 0
    },
    {
      "id": "892c96c4-4f7e-49df-a63b-d25c01a8d28e",
      "data": [
        {
          "text": "how is "
        },
        {
          "text": "your",
          "meta": "@sys.ignore",
          "userDefined": false
        },
        {
          "text": " "
        },
        {
          "text": "day",
          "meta": "@sys.ignore",
          "userDefined": false
        },
        {
          "text": " going "
        },
        {
          "text": "on",
          "meta": "@sys.ignore",
          "userDefined": false
        }
      ],
      "isTemplate": false,
      "count": 1
    },
    {
      "id": "ef009012-b6f5-4d77-94e9-bb8a1661b24b",
      "data": [
        {
          "text": "how "
        },
        {
          "text": "your",
          "meta": "@sys.ignore",
          "userDefined": false
        },
        {
          "text": " "
        },
        {
          "text": "day",
          "meta": "@sys.ignore",
          "userDefined": false
        },
        {
          "text": " is going"
        }
      ],
      "isTemplate": false,
      "count": 0
    },
    {
      "id": "98120365-48d5-41a7-ab3b-25d00e69981e",
      "data": [
        {
          "text": "what was "
        },
        {
          "text": "your",
          "meta": "@sys.ignore",
          "userDefined": false
        },
        {
          "text": " "
        },
        {
          "text": "day",
          "meta": "@sys.ignore",
          "userDefined": false
        },
        {
          "text": " like"
        }
      ],
      "isTemplate": false,
      "count": 0
    },
    {
      "id": "6806a06c-db11-4518-a78d-e6d5a2f7d16e",
      "data": [
        {
          "text": "what about "
        },
        {
          "text": "your",
          "meta": "@sys.ignore",
          "userDefined": false
        },
        {
          "text": " "
        },
        {
          "text": "day",
          "meta": "@sys.ignore",
          "userDefined": false
        }
      ],
      "isTemplate": false,
      "count": 0
    },
    {
      "id": "ff7704f9-8d48-4821-8c0a-c0278e460da8",
      "data": [
        {
          "text": "how\u0027s your day"
        }
      ],
      "isTemplate": false,
      "count": 0
    },
    {
      "id": "3ed33c57-fc9a-44f9-8ece-acbb698eea01",
      "data": [
        {
          "text": "how are you doing this morning"
        }
      ],
      "isTemplate": false,
      "count": 0
    },
    {
      "id": "a233ab0c-2369-4ab3-9701-953f50e77891",
      "data": [
        {
          "text": "how is your day going"
        }
      ],
      "isTemplate": false,
      "count": 0
    }
  ],
  "id": "47b74765-a721-4414-ae6a-1f5997a45391",
  "name": "greetings.how_are_you",
  "auto": true,
  "contexts": [
    "smalltalk"
  ],
  "responses": [
    {
      "resetContexts": false,
      "action": "greetings.how_are_you",
      "affectedContexts": [],
      "parameters": [],
      "messages": [
        {
          "type": 0,
          "speech": [
            "Wonderful as always. Thanks for asking. 😁",
            "Couldn\u0027t be better. 😁",
            "Lovely, thanks. 😁"
          ]
        }
      ],
      "defaultResponsePlatforms": {}
    }
  ],
  "priority": 500000,
  "webhookUsed": false,
  "webhookForSlotFilling": false,
  "fallbackIntent": false,
  "events": []
}