{
  "userSays": [
    {
      "id": "4763ea08-548f-475c-b00b-4d78062300f4",
      "data": [
        {
          "text": "ABC",
          "alias": "any",
          "meta": "@sys.any",
          "userDefined": true
        }
      ],
      "isTemplate": false,
      "count": 0
    }
  ],
  "id": "35c6f7cd-97b1-4453-bdad-04df17a8079b",
  "parentId": "b9c23af7-9c2a-4b8d-a883-228736aaeee5",
  "rootParentId": "01732c78-77c9-4816-b759-4ef3c8ed293f",
  "name": "Input Survey Name",
  "auto": true,
  "contexts": [
    "UsernamePassword-Valid-followup"
  ],
  "responses": [
    {
      "resetContexts": false,
      "action": "InputSurveyName",
      "affectedContexts": [
        {
          "name": "InputSurveyName-followup",
          "parameters": {},
          "lifespan": 1
        },
        {
          "name": "ListQuestion",
          "parameters": {},
          "lifespan": 1
        }
      ],
      "parameters": [
        {
          "dataType": "@sys.any",
          "name": "any",
          "value": "$any",
          "isList": false
        }
      ],
      "messages": [
        {
          "type": 0,
          "speech": []
        }
      ],
      "defaultResponsePlatforms": {}
    }
  ],
  "priority": 1000000,
  "webhookUsed": true,
  "webhookForSlotFilling": false,
  "fallbackIntent": false,
  "events": []
}