{
  "userSays": [],
  "id": "31d5bd98-f7b7-4ff3-9cf0-6f50d012b9d3",
  "parentId": "d68ce878-59aa-4389-a241-c2a07d774501",
  "rootParentId": "01732c78-77c9-4816-b759-4ef3c8ed293f",
  "name": "No More Questions",
  "auto": true,
  "contexts": [
    "AnotherQuestion-followup"
  ],
  "responses": [
    {
      "resetContexts": false,
      "action": "NoMoreQuestions",
      "affectedContexts": [
        {
          "name": "ListQuestion",
          "parameters": {},
          "lifespan": 0
        }
      ],
      "parameters": [
        {
          "required": false,
          "dataType": "",
          "name": "responseListQuestion",
          "value": "#NoMoreQuestionsEvent.questions"
        },
        {
          "name": "responseMessage",
          "value": "#NoMoreQuestionsEvent.message"
        }
      ],
      "messages": [
        {
          "type": 0,
          "speech": "$responseListQuestion"
        },
        {
          "type": 0,
          "speech": "$responseMessage"
        }
      ],
      "defaultResponsePlatforms": {
        "facebook": false
      }
    }
  ],
  "priority": 1000000,
  "webhookUsed": false,
  "webhookForSlotFilling": false,
  "fallbackIntent": false,
  "events": [
    {
      "name": "NoMoreQuestionsEvent"
    }
  ]
}