{
  "userSays": [
    {
      "id": "19fd1f6c-264d-4051-892e-673d52400709",
      "data": [
        {
          "text": "what is this survey"
        }
      ],
      "isTemplate": false,
      "count": 0
    },
    {
      "id": "25fade91-dda5-4232-93bd-700681fa4c79",
      "data": [
        {
          "text": "what kind of survey do you do"
        }
      ],
      "isTemplate": false,
      "count": 0
    },
    {
      "id": "b341a58a-1c7c-4f11-b7e4-7092e9662dcc",
      "data": [
        {
          "text": "what\u0027s this survey"
        }
      ],
      "isTemplate": false,
      "count": 0
    },
    {
      "id": "5eccd4fe-fe9f-47bc-aeb8-5a8dc8662cf9",
      "data": [
        {
          "text": "what survey do you do"
        }
      ],
      "isTemplate": false,
      "count": 0
    },
    {
      "id": "ec4fd141-c124-43ee-9a88-217b5174df0b",
      "data": [
        {
          "text": "what survey"
        }
      ],
      "isTemplate": false,
      "count": 0
    }
  ],
  "id": "77dc6e0e-0e04-4fbe-b604-37330ce9d594",
  "name": "survey.what",
  "auto": true,
  "contexts": [
    "smalltalk"
  ],
  "responses": [
    {
      "resetContexts": false,
      "affectedContexts": [],
      "parameters": [],
      "messages": [
        {
          "type": 0,
          "speech": [
            "My surveys are simple! They are questions that my company wants your opinion on: like Japanese, English class... 😁",
            "It\u0027s simple! They are questions about our English, Japanese classes... 😁",
            "Mainly questions about our classes. For example the Japanese and English ones 😁"
          ]
        }
      ],
      "defaultResponsePlatforms": {}
    }
  ],
  "priority": 500000,
  "webhookUsed": false,
  "webhookForSlotFilling": false,
  "fallbackIntent": false,
  "events": []
}