{
  "userSays": [
    {
      "id": "210ee59f-c9d6-4b4b-bbbd-06303800e6d2",
      "data": [
        {
          "text": "you liar"
        }
      ],
      "isTemplate": false,
      "count": 0
    },
    {
      "id": "6ede7ab8-ba76-42f2-a0db-42ce85ef50dd",
      "data": [
        {
          "text": "liar"
        }
      ],
      "isTemplate": false,
      "count": 0
    },
    {
      "id": "bcb4b488-9a58-4f74-813b-c1492ece29af",
      "data": [
        {
          "text": "I don\u0027t believe you"
        }
      ],
      "isTemplate": false,
      "count": 0
    },
    {
      "id": "1e6fe5a8-c702-4b44-8606-2711546bbc4f",
      "data": [
        {
          "text": "I don\u0027t trust you"
        }
      ],
      "isTemplate": false,
      "count": 0
    },
    {
      "id": "6436bd9c-1caf-43a8-bc6f-e069ac84d24f",
      "data": [
        {
          "text": "you lied to me"
        }
      ],
      "isTemplate": false,
      "count": 0
    },
    {
      "id": "98c08159-fd23-4192-9e6f-6696b08fd3dd",
      "data": [
        {
          "text": "you lied"
        }
      ],
      "isTemplate": false,
      "count": 0
    },
    {
      "id": "77afbc0c-46dc-4c90-ac43-65285399753e",
      "data": [
        {
          "text": "you lie"
        }
      ],
      "isTemplate": false,
      "count": 0
    }
  ],
  "id": "4c3622aa-9c09-4df2-ab55-a8c4dcb1561f",
  "name": "user.not_trust_agent",
  "auto": true,
  "contexts": [
    "smalltalk"
  ],
  "responses": [
    {
      "resetContexts": false,
      "affectedContexts": [],
      "parameters": [],
      "messages": [
        {
          "type": 0,
          "speech": [
            "why don\u0027t you trust me?? 😭",
            "what did I do that you don\u0027t trust me?? 😰",
            "what happened?? Why did I lose your trust?? 😭"
          ]
        }
      ],
      "defaultResponsePlatforms": {}
    }
  ],
  "priority": 500000,
  "webhookUsed": false,
  "webhookForSlotFilling": false,
  "fallbackIntent": false,
  "events": []
}