{
  "userSays": [
    {
      "id": "c42ef113-5e69-40c6-90f9-067eccea8fe4",
      "data": [
        {
          "text": "tell me something funny"
        }
      ],
      "isTemplate": false,
      "count": 0
    },
    {
      "id": "d6abb653-1c25-4ce1-9f6e-1a3c72190c8f",
      "data": [
        {
          "text": "give another joke"
        }
      ],
      "isTemplate": false,
      "count": 0
    },
    {
      "id": "a112f454-7ff8-45e5-a255-1416307f4e93",
      "data": [
        {
          "text": "tell another joke"
        }
      ],
      "isTemplate": false,
      "count": 0
    },
    {
      "id": "b1db557c-b624-4c4f-912b-0c0a68a87eac",
      "data": [
        {
          "text": "give a joke"
        }
      ],
      "isTemplate": false,
      "count": 0
    },
    {
      "id": "d2073ec8-e22d-465e-9f3f-41e84eafba20",
      "data": [
        {
          "text": "give joke"
        }
      ],
      "isTemplate": false,
      "count": 0
    },
    {
      "id": "9b5a28cf-1545-4597-9e19-7881dd3bbe1c",
      "data": [
        {
          "text": "tell joke"
        }
      ],
      "isTemplate": false,
      "count": 0
    },
    {
      "id": "2bffe276-03d7-43c7-bcb9-6c71fdd8c92d",
      "data": [
        {
          "text": "tell a joke"
        }
      ],
      "isTemplate": false,
      "count": 0
    },
    {
      "id": "f8245037-e193-4a9a-8ba7-d8c3938199c6",
      "data": [
        {
          "text": "that was "
        },
        {
          "text": "boring",
          "meta": "@sys.ignore",
          "userDefined": false
        }
      ],
      "isTemplate": false,
      "count": 0
    },
    {
      "id": "61202215-429f-4724-9934-420bc9c308aa",
      "data": [
        {
          "text": "I\u0027m bored"
        }
      ],
      "isTemplate": false,
      "count": 0
    },
    {
      "id": "19c7eeb5-0646-482e-8734-4dfbdb96c008",
      "data": [
        {
          "text": "bored"
        }
      ],
      "isTemplate": false,
      "count": 0
    },
    {
      "id": "3701c839-86a0-49f4-bd27-17181c2c5509",
      "data": [
        {
          "text": "boring",
          "meta": "@sys.ignore",
          "userDefined": false
        }
      ],
      "isTemplate": false,
      "count": 0
    },
    {
      "id": "3a4c7840-ac59-4962-b2b4-a2e609cb239b",
      "data": [
        {
          "text": "I am getting bored"
        }
      ],
      "isTemplate": false,
      "count": 0
    },
    {
      "id": "6daa5c07-72f0-48c8-a5e3-6edfbf589df7",
      "data": [
        {
          "text": "this is "
        },
        {
          "text": "boring",
          "meta": "@sys.ignore",
          "userDefined": false
        }
      ],
      "isTemplate": false,
      "count": 0
    },
    {
      "id": "d50345bd-1fb3-4f65-badb-13283dd44b83",
      "data": [
        {
          "text": "very "
        },
        {
          "text": "boring",
          "meta": "@sys.ignore",
          "userDefined": false
        }
      ],
      "isTemplate": false,
      "count": 0
    },
    {
      "id": "e8b4284f-f2ba-48c6-9b40-08d36d69ab64",
      "data": [
        {
          "text": "it bores me"
        }
      ],
      "isTemplate": false,
      "count": 0
    }
  ],
  "id": "975709f9-07e7-4bd3-9f82-9f961c1aeacd",
  "name": "user.bored",
  "auto": true,
  "contexts": [
    "smalltalk"
  ],
  "responses": [
    {
      "resetContexts": false,
      "action": "user.bored",
      "affectedContexts": [],
      "parameters": [],
      "messages": [
        {
          "type": 0,
          "speech": [
            "My friend thinks he is smart. He told me an onion is the only food that makes you cry, so I threw a coconut at his face. 😲",
            "Teacher: \"What exactly is MATH?\". Boy: Mental Abuse To Humans. 😵",
            "Teacher: \"Are you sleeping in my class?\". Student: \"Well now I\u0027m not but if you could be a little quieter I could\". 😴",
            "Why did the student eat his homework? Because his teacher said, it was a peace of cake. 😋",
            "Teacher: \"Name two days of the week that start with \"T\"\". Pupil: \"Today and Tomorrow\". 😝",
            "What did the red light say to the green light? Don\u0027t look I\u0027m changing! 😒",
            "What is the difference between a snowman and a snowwoman? Snowballs. 😱",
            "-Patient: \"Oh doctor, I’m just so nervous. This is my first operation\". -Doctor: \"Don\u0027t worry. Mine too\". 😉",
            "A naked woman robbed a bank. Nobody could remember her face. 😁",
            "So much has changed since my girlfriend told me we’re having a baby. For instance my name, address and telephone number! 😏",
            "- \"You are so kind, funny and beautiful\". - \"Oh come on. You just want to get me to bed\". - \"And smart, too!\". 😏",
            "A woman in a bikini reveals about 90% of her body.... and yet most men are so polite they only look at the covered parts. 😁",
            "Two elephants meet a totally naked guy. After a while one elephant says to the other: “I really don’t get how he can feed himself with that thing!” 😁",
            "- \"Grandpa, why don\u0027t you have any life insurance?\" - \"So you can all be really sad when I die.\" 😲",
            "Yes, money cannot buy you happiness, but I’d still feel a lot more comfortable crying in a new BMW than on a bike. 😏"
          ]
        }
      ],
      "defaultResponsePlatforms": {}
    }
  ],
  "priority": 500000,
  "webhookUsed": false,
  "webhookForSlotFilling": false,
  "fallbackIntent": false,
  "events": []
}