{
  "userSays": [],
  "id": "18d15c9c-1e2c-4b8b-b2a3-383d0007cab4",
  "parentId": "931449e3-2201-498b-9d9b-294670744050",
  "rootParentId": "c11cf6e3-aeed-4263-b02b-9cafbaa3777f",
  "name": "User-AskSurvey",
  "auto": true,
  "contexts": [
    "User-make_survey-followup"
  ],
  "responses": [
    {
      "resetContexts": false,
      "action": "Hello.make_survey.User-AskSurvey",
      "affectedContexts": [
        {
          "name": "User-AskSurvey-followup",
          "parameters": {},
          "lifespan": 1
        },
        {
          "name": "Class",
          "parameters": {},
          "lifespan": 1
        }
      ],
      "parameters": [],
      "messages": [
        {
          "type": 0,
          "platform": "facebook",
          "speech": "And you want to make a survey for?"
        },
        {
          "type": 0,
          "speech": []
        }
      ],
      "defaultResponsePlatforms": {
        "facebook": true
      }
    }
  ],
  "priority": 1000000,
  "webhookUsed": true,
  "webhookForSlotFilling": false,
  "fallbackIntent": false,
  "events": [
    {
      "name": "AskSurvey"
    }
  ]
}