{
  "userSays": [
    {
      "id": "bce0978d-920b-4310-ab33-396a3392be07",
      "data": [
        {
          "text": "ohhhhh"
        }
      ],
      "isTemplate": false,
      "count": 0
    },
    {
      "id": "217af3a7-dc04-41ca-aa7d-f8f38b3980fe",
      "data": [
        {
          "text": "ohhhh"
        }
      ],
      "isTemplate": false,
      "count": 0
    },
    {
      "id": "048d8073-9946-46d0-8c3f-7854d1905ed3",
      "data": [
        {
          "text": "ohhh"
        }
      ],
      "isTemplate": false,
      "count": 0
    },
    {
      "id": "7d7177d8-eaaf-416a-b074-a77be95e8c70",
      "data": [
        {
          "text": "ohh"
        }
      ],
      "isTemplate": false,
      "count": 0
    },
    {
      "id": "13992e84-cbe8-45f0-8d5f-c1ebfdd446fc",
      "data": [
        {
          "text": "oh"
        }
      ],
      "isTemplate": false,
      "count": 0
    }
  ],
  "id": "df250374-deb3-4b72-955c-1a4536f7239b",
  "name": "user.oh",
  "auto": true,
  "contexts": [
    "smalltalk"
  ],
  "responses": [
    {
      "resetContexts": false,
      "action": "user.oh",
      "affectedContexts": [],
      "parameters": [],
      "messages": [
        {
          "type": 0,
          "speech": [
            "ohh? 😏",
            "ohhhhh? 😏"
          ]
        }
      ],
      "defaultResponsePlatforms": {}
    }
  ],
  "priority": 500000,
  "webhookUsed": false,
  "webhookForSlotFilling": false,
  "fallbackIntent": false,
  "events": []
}