{
  "userSays": [
    {
      "id": "fbb24ebb-1bf0-4906-aef6-778869aa7ecb",
      "data": [
        {
          "text": "abc@gmail.com/abcd123",
          "alias": "any",
          "meta": "@sys.any",
          "userDefined": true
        }
      ],
      "isTemplate": false,
      "count": 0
    }
  ],
  "id": "e23c6301-2695-40c5-bef6-753014378e1e",
  "parentId": "01732c78-77c9-4816-b759-4ef3c8ed293f",
  "rootParentId": "01732c78-77c9-4816-b759-4ef3c8ed293f",
  "name": "Username Password",
  "auto": true,
  "contexts": [
    "MakeSurvey-followup"
  ],
  "responses": [
    {
      "resetContexts": false,
      "action": "checkUsernamePassword",
      "affectedContexts": [
        {
          "name": "UsernamePassword-followup",
          "parameters": {},
          "lifespan": 1
        }
      ],
      "parameters": [
        {
          "required": true,
          "dataType": "@sys.any",
          "name": "any",
          "value": "$any",
          "isList": false
        }
      ],
      "messages": [
        {
          "type": 0,
          "speech": []
        }
      ],
      "defaultResponsePlatforms": {}
    }
  ],
  "priority": 1000000,
  "webhookUsed": true,
  "webhookForSlotFilling": false,
  "fallbackIntent": false,
  "events": []
}