{
  "userSays": [],
  "id": "9f95fe02-fe54-40fd-a5a0-265df9cb4ed7",
  "parentId": "6432ba3a-af2e-4a37-ba6a-38a06a23738f",
  "rootParentId": "c11cf6e3-aeed-4263-b02b-9cafbaa3777f",
  "name": "User-AskFirstQuestion",
  "auto": true,
  "contexts": [
    "User-AskSurvey-Class-followup"
  ],
  "responses": [
    {
      "resetContexts": false,
      "action": "Hello.make_survey.User-AskSurvey.User-AskSurvey-Class.User-AskFirstQuestion",
      "affectedContexts": [
        {
          "name": "User-AskFirstQuestion-followup",
          "parameters": {},
          "lifespan": 1
        },
        {
          "name": "Class",
          "parameters": {},
          "lifespan": 1
        }
      ],
      "parameters": [
        {
          "name": "FirstQuestion",
          "value": "#FirstQ.FirstQuestion"
        },
        {
          "name": "wrong_answer",
          "value": "#FirstQ.speech"
        }
      ],
      "messages": [
        {
          "type": 0,
          "platform": "facebook",
          "speech": "My first question, $FirstQuestion"
        }
      ],
      "defaultResponsePlatforms": {
        "facebook": false
      }
    }
  ],
  "priority": 1000000,
  "webhookUsed": true,
  "webhookForSlotFilling": true,
  "fallbackIntent": false,
  "events": [
    {
      "name": "FirstQ"
    }
  ]
}