{
  "userSays": [
    {
      "id": "f1b98ae5-3a87-43cf-a308-42e5e0481e7d",
      "data": [
        {
          "text": "am I good"
        }
      ],
      "isTemplate": false,
      "count": 0
    },
    {
      "id": "a98ca2c6-567c-4cf9-948d-beca2f4b4c36",
      "data": [
        {
          "text": "I\u0027m wonderful"
        }
      ],
      "isTemplate": false,
      "count": 0
    },
    {
      "id": "97ac9a15-f34d-488d-9218-e05b9441b87f",
      "data": [
        {
          "text": "I\u0027m handsome"
        }
      ],
      "isTemplate": false,
      "count": 0
    },
    {
      "id": "6ab5f1e3-6d58-439d-a541-0a0e98dd1ffa",
      "data": [
        {
          "text": "I\u0027m beautiful"
        }
      ],
      "isTemplate": false,
      "count": 0
    },
    {
      "id": "ad114cfc-b242-44f5-87b3-cbc4d47267af",
      "data": [
        {
          "text": "am I wonderful"
        }
      ],
      "isTemplate": false,
      "count": 1
    },
    {
      "id": "762e0aee-1324-401c-98fa-d91222bc0c2f",
      "data": [
        {
          "text": "am I beautiful"
        }
      ],
      "isTemplate": false,
      "count": 0
    }
  ],
  "id": "47e77eea-3a7b-41fe-9b5e-2a0ba4aeb35b",
  "name": "user.beauty",
  "auto": true,
  "contexts": [
    "smalltalk"
  ],
  "responses": [
    {
      "resetContexts": false,
      "affectedContexts": [],
      "parameters": [],
      "messages": [
        {
          "type": 0,
          "speech": [
            "Of course you are!! 😂",
            "Of course!! 😁"
          ]
        }
      ],
      "defaultResponsePlatforms": {}
    }
  ],
  "priority": 500000,
  "webhookUsed": false,
  "webhookForSlotFilling": false,
  "fallbackIntent": false,
  "events": []
}