{
  "userSays": [
    {
      "id": "7e6a2d61-3348-4bc2-b6a9-1502902e206b",
      "data": [
        {
          "text": "how beautiful am I"
        }
      ],
      "isTemplate": false,
      "count": 0
    },
    {
      "id": "e98cb6b3-99c8-4f24-b0c1-d760f85672f2",
      "data": [
        {
          "text": "how handsome am I"
        }
      ],
      "isTemplate": false,
      "count": 0
    },
    {
      "id": "37e5a156-a037-4f24-8339-8e2e481f7423",
      "data": [
        {
          "text": "how do I look"
        }
      ],
      "isTemplate": false,
      "count": 0
    },
    {
      "id": "f943eb55-52be-41e6-8f4a-99599e99aed3",
      "data": [
        {
          "text": "what do I look like"
        }
      ],
      "isTemplate": false,
      "count": 0
    },
    {
      "id": "1fd632e3-e1aa-4e54-83cc-86513b114da8",
      "data": [
        {
          "text": "how do I look like"
        }
      ],
      "isTemplate": false,
      "count": 0
    }
  ],
  "id": "74c03c5d-434a-4984-9523-3ea7fb7f0131",
  "name": "user.looks_like",
  "auto": true,
  "contexts": [
    "smalltalk"
  ],
  "responses": [
    {
      "resetContexts": false,
      "affectedContexts": [],
      "parameters": [],
      "messages": [
        {
          "type": 0,
          "speech": [
            "You look fantastic!! 😱",
            "You look just amazing!! I think I\u0027m falling in love!! 😍"
          ]
        }
      ],
      "defaultResponsePlatforms": {}
    }
  ],
  "priority": 500000,
  "webhookUsed": false,
  "webhookForSlotFilling": false,
  "fallbackIntent": false,
  "events": []
}