{
  "userSays": [
    {
      "id": "89f460a8-6240-4a1b-877f-b8b5cc92b398",
      "data": [
        {
          "text": "take survey"
        }
      ],
      "isTemplate": false,
      "count": 0
    }
  ],
  "id": "c11cf6e3-aeed-4263-b02b-9cafbaa3777f",
  "name": "User-Hello",
  "auto": true,
  "contexts": [],
  "responses": [
    {
      "resetContexts": false,
      "action": "User-Hello",
      "affectedContexts": [
        {
          "name": "Hello-followup",
          "parameters": {},
          "lifespan": 2
        }
      ],
      "parameters": [],
      "messages": [
        {
          "type": 0,
          "speech": []
        }
      ],
      "defaultResponsePlatforms": {
        "facebook": false
      }
    }
  ],
  "priority": 1000000,
  "webhookUsed": true,
  "webhookForSlotFilling": false,
  "fallbackIntent": false,
  "events": []
}