{
  "userSays": [
    {
      "id": "806b1471-9851-4ccd-bcda-cb229037ecd4",
      "data": [
        {
          "text": "I believe u"
        }
      ],
      "isTemplate": false,
      "count": 0
    },
    {
      "id": "9f2bfbb1-85a9-4500-85fb-23d3c4e94493",
      "data": [
        {
          "text": "I trust you"
        }
      ],
      "isTemplate": false,
      "count": 0
    }
  ],
  "id": "261a6a92-534d-4441-ac50-65363c906223",
  "name": "user.trust_agent",
  "auto": true,
  "contexts": [
    "smalltalk"
  ],
  "responses": [
    {
      "resetContexts": false,
      "affectedContexts": [],
      "parameters": [],
      "messages": [
        {
          "type": 0,
          "speech": [
            "Wonderful!!! 😁😁",
            "Fantastic!! 😱😱"
          ]
        }
      ],
      "defaultResponsePlatforms": {}
    }
  ],
  "priority": 500000,
  "webhookUsed": false,
  "webhookForSlotFilling": false,
  "fallbackIntent": false,
  "events": []
}