{
  "userSays": [
    {
      "id": "a2ea4593-096b-4d97-861c-4f7aefadc025",
      "data": [
        {
          "text": "đồ ngu"
        }
      ],
      "isTemplate": false,
      "count": 0
    },
    {
      "id": "18a384b3-fa35-4e1e-ab1d-bf14d6d570f3",
      "data": [
        {
          "text": "bot",
          "meta": "@sys.ignore",
          "userDefined": false
        },
        {
          "text": " ngu"
        }
      ],
      "isTemplate": false,
      "count": 0
    },
    {
      "id": "3b36c7bd-c460-4cc6-a919-2c920c321e4f",
      "data": [
        {
          "text": "do ngu"
        }
      ],
      "isTemplate": false,
      "count": 0
    },
    {
      "id": "b2e41f45-be6e-432d-8367-af306cdf0613",
      "data": [
        {
          "text": "ngu"
        }
      ],
      "isTemplate": false,
      "count": 0
    }
  ],
  "id": "994cfa18-6999-470b-b247-0449cc8e39cb",
  "name": "user.viet",
  "auto": true,
  "contexts": [
    "smalltalk"
  ],
  "responses": [
    {
      "resetContexts": false,
      "action": "us",
      "affectedContexts": [],
      "parameters": [],
      "messages": [
        {
          "type": 0,
          "speech": [
            "Don\u0027t speak Vietnamese!! And don\u0027t be so impolite!! 😡",
            "English only please!!! (You\u0027re so rude btw!!! 😤)",
            "I don\u0027t understand Vietnamese!! (I understand that though!! 😡)"
          ]
        }
      ],
      "defaultResponsePlatforms": {
        "facebook": false
      }
    }
  ],
  "priority": 500000,
  "webhookUsed": false,
  "webhookForSlotFilling": false,
  "fallbackIntent": false,
  "events": []
}