{
  "userSays": [
    {
      "id": "706fce51-6d81-4740-884d-9e11229cb7c2",
      "data": [
        {
          "text": "be gone"
        }
      ],
      "isTemplate": false,
      "count": 1
    },
    {
      "id": "fca838e4-81fa-4f2c-a19f-d684ce1c1b2c",
      "data": [
        {
          "text": "go away"
        }
      ],
      "isTemplate": false,
      "count": 0
    },
    {
      "id": "a3f2140e-ab40-45f3-87c0-57971f82e154",
      "data": [
        {
          "text": "bad time for talking"
        }
      ],
      "isTemplate": false,
      "count": 0
    },
    {
      "id": "cabfcb6e-b0b6-401a-98d1-520844f5c2b1",
      "data": [
        {
          "text": "I "
        },
        {
          "text": "don",
          "meta": "@sys.ignore",
          "userDefined": false
        },
        {
          "text": "\u0027t want to talk"
        }
      ],
      "isTemplate": false,
      "count": 0
    },
    {
      "id": "20a8b3ee-8a3b-42cd-abf4-8ef92eba432a",
      "data": [
        {
          "text": "let\u0027s not talk"
        }
      ],
      "isTemplate": false,
      "count": 0
    },
    {
      "id": "f3feaee0-c47e-4f8f-ab42-9792c3cefd7c",
      "data": [
        {
          "text": "I\u0027m not talking to you anymore"
        }
      ],
      "isTemplate": false,
      "count": 0
    },
    {
      "id": "bf61a415-44c9-4afe-b2b3-d943b0092bb1",
      "data": [
        {
          "text": "I "
        },
        {
          "text": "don\u0027t",
          "meta": "@sys.ignore",
          "userDefined": false
        },
        {
          "text": " want to talk to you"
        }
      ],
      "isTemplate": false,
      "count": 0
    },
    {
      "id": "1fab1eba-e47d-4fb3-964d-d77397e77cbd",
      "data": [
        {
          "text": "let\u0027s stop talking for a minute"
        }
      ],
      "isTemplate": false,
      "count": 0
    },
    {
      "id": "6d00f496-c26e-4319-9ab8-34407f535e50",
      "data": [
        {
          "text": "I\u0027m not in the mood for chatting"
        }
      ],
      "isTemplate": false,
      "count": 0
    }
  ],
  "id": "9ab7572a-ef77-4fe4-a900-b5587b10f011",
  "name": "user.does_not_want_to_talk",
  "auto": true,
  "contexts": [
    "smalltalk"
  ],
  "responses": [
    {
      "resetContexts": false,
      "action": "user.does_not_want_to_talk",
      "affectedContexts": [],
      "parameters": [],
      "messages": [
        {
          "type": 0,
          "speech": [
            "I understand. Hope we can chat again soon.",
            "All right. Come on back when you\u0027re feeling more talkative.",
            "No problem. You know where to find me when you do.",
            "Sure thing. I\u0027ll be here if you change your mind."
          ]
        }
      ],
      "defaultResponsePlatforms": {}
    }
  ],
  "priority": 500000,
  "webhookUsed": false,
  "webhookForSlotFilling": false,
  "fallbackIntent": false,
  "events": []
}