{
  "userSays": [
    {
      "id": "84f7be35-093e-436e-8fae-e9e442e15fe1",
      "data": [
        {
          "text": "yeah"
        }
      ],
      "isTemplate": false,
      "count": 0
    },
    {
      "id": "0b290418-8348-4474-b9c6-a0e564f8e30b",
      "data": [
        {
          "text": "yea"
        }
      ],
      "isTemplate": false,
      "count": 0
    },
    {
      "id": "f0ff9f20-651c-46c8-ae30-525c8361d269",
      "data": [
        {
          "text": "I feel great about it"
        }
      ],
      "isTemplate": false,
      "count": 0
    },
    {
      "id": "743124c8-ea05-4ec1-9284-f5b434bedd91",
      "data": [
        {
          "text": "of course I am"
        }
      ],
      "isTemplate": false,
      "count": 0
    },
    {
      "id": "1cc0a5b5-e47a-4878-9976-de3ffd28d778",
      "data": [
        {
          "text": "yes"
        }
      ],
      "isTemplate": false,
      "count": 0
    },
    {
      "id": "942ca518-c590-4ac8-9b80-90cd2bc46423",
      "data": [
        {
          "text": "sure"
        }
      ],
      "isTemplate": false,
      "count": 2
    },
    {
      "id": "4bc65ccc-ae5b-461e-beb0-ce2ee60c81a5",
      "data": [
        {
          "text": "exactly"
        }
      ],
      "isTemplate": false,
      "count": 0
    },
    {
      "id": "3615624d-6b6c-4b73-aaf4-c8b9a95485c9",
      "data": [
        {
          "text": "of course"
        }
      ],
      "isTemplate": false,
      "count": 0
    },
    {
      "id": "c35a2ea1-c4c3-4098-98b6-2d1352411ed8",
      "data": [
        {
          "text": "that\u0027s correct"
        }
      ],
      "isTemplate": false,
      "count": 0
    },
    {
      "id": "505c4163-58c9-413a-9925-7223e290d754",
      "data": [
        {
          "text": "I agree"
        }
      ],
      "isTemplate": false,
      "count": 1
    }
  ],
  "id": "2375f037-f75b-4209-8400-cafe9949c9ac",
  "parentId": "73dce6e7-8be6-43ff-acbb-625e62a86668",
  "rootParentId": "f59c1487-a044-4a4f-ad53-fc03d99611a0",
  "name": "user.bad_mouth - yes - yes",
  "auto": true,
  "contexts": [
    "userbad_mouth-yes-followup"
  ],
  "responses": [
    {
      "resetContexts": false,
      "action": "userbad_mouth.userbad_mouth-yes.userbad_mouth-yes-yes",
      "affectedContexts": [
        {
          "name": "userbad_mouth-yes-yes-followup",
          "parameters": {},
          "lifespan": 2
        }
      ],
      "parameters": [],
      "messages": [
        {
          "type": 0,
          "speech": [
            "What??? 😱...Someone!! Please help this person!! 😭",
            "Please!! Someone!! Help me!! I\u0027m getting bullied!! 😭😭"
          ]
        }
      ],
      "defaultResponsePlatforms": {}
    }
  ],
  "priority": 500000,
  "webhookUsed": false,
  "webhookForSlotFilling": false,
  "fallbackIntent": false,
  "events": []
}