{
  "userSays": [
    {
      "id": "50a9b7ef-9c31-446b-864a-3ef78cfb17e9",
      "data": [
        {
          "text": "tell me about the weather"
        }
      ],
      "isTemplate": false,
      "count": 0
    },
    {
      "id": "38c61b7b-9fe5-433e-863e-85d508a0cdc9",
      "data": [
        {
          "text": "what\u0027s the weather"
        }
      ],
      "isTemplate": false,
      "count": 0
    },
    {
      "id": "f4d29449-ee73-4550-b549-ec8afdb3b97d",
      "data": [
        {
          "text": "tell weather"
        }
      ],
      "isTemplate": false,
      "count": 0
    },
    {
      "id": "6fed2f65-769d-4484-8928-00c1b24e731f",
      "data": [
        {
          "text": "weather"
        }
      ],
      "isTemplate": false,
      "count": 0
    }
  ],
  "id": "d8dd9a46-eaf5-4518-a8bd-ddae7b652d25",
  "name": "user.want_weather",
  "auto": true,
  "contexts": [
    "smalltalk"
  ],
  "responses": [
    {
      "resetContexts": false,
      "affectedContexts": [
        {
          "name": "userwant_weather-followup",
          "parameters": {},
          "lifespan": 2
        }
      ],
      "parameters": [],
      "messages": [
        {
          "type": 0,
          "speech": [
            "Go ask Poncho my friend!! 😒",
            "Ask Poncho that question!! 😒",
            "I\u0027m not designed for weather forecast!! Ask Poncho!! 😒",
            "If you want to know about the weather!! Ask Poncho!! 😒"
          ]
        }
      ],
      "defaultResponsePlatforms": {}
    }
  ],
  "priority": 500000,
  "webhookUsed": false,
  "webhookForSlotFilling": false,
  "fallbackIntent": false,
  "events": []
}