{
  "userSays": [],
  "id": "32de08b4-a30b-4eb8-94da-94087343357a",
  "parentId": "6432ba3a-af2e-4a37-ba6a-38a06a23738f",
  "rootParentId": "c11cf6e3-aeed-4263-b02b-9cafbaa3777f",
  "name": "User-ErrorSurvey",
  "auto": true,
  "contexts": [
    "User-AskSurvey-Class-followup",
    "Class"
  ],
  "responses": [
    {
      "resetContexts": false,
      "action": "Hello.make_survey.User-AskSurvey.User-AskSurvey-Class.User-ErrorSurvey",
      "affectedContexts": [],
      "parameters": [],
      "messages": [
        {
          "type": 0,
          "speech": "sorry, I don\u0027t understand. Please choose survey again :("
        }
      ],
      "defaultResponsePlatforms": {}
    }
  ],
  "priority": 500000,
  "webhookUsed": true,
  "webhookForSlotFilling": false,
  "fallbackIntent": false,
  "events": [
    {
      "name": "failSurvey"
    }
  ]
}