{
  "userSays": [],
  "id": "8732ba2e-1b7c-4a66-9bd4-971fa7333a39",
  "parentId": "1f0e3cdf-03e7-4825-af20-f7c9168aeed3",
  "rootParentId": "c11cf6e3-aeed-4263-b02b-9cafbaa3777f",
  "name": "User-AskNextQuestion",
  "auto": true,
  "contexts": [
    "User-Next-followup"
  ],
  "responses": [
    {
      "resetContexts": false,
      "action": "Hello.make_survey.User-AskSurvey.User-AskSurvey-Class.User-AskFirstQuestion.User-Next.User-AskNextQuestion",
      "affectedContexts": [
        {
          "name": "User-AskFirstQuestion-followup",
          "parameters": {},
          "lifespan": 1
        },
        {
          "name": "Class",
          "parameters": {},
          "lifespan": 1
        },
        {
          "name": "User-AskNextQuestion-followup",
          "parameters": {},
          "lifespan": 2
        }
      ],
      "parameters": [
        {
          "name": "NextQuestion",
          "value": "#NextQ.NextQuestion"
        },
        {
          "name": "wrong_answer1",
          "value": "#NextQ.speech"
        },
        {
          "name": "Stt1",
          "value": "#NextQ.Stt1"
        }
      ],
      "messages": [
        {
          "type": 0,
          "platform": "facebook",
          "speech": "Question $Stt1 for you, $NextQuestion"
        },
        {
          "type": 0,
          "speech": []
        }
      ],
      "defaultResponsePlatforms": {
        "facebook": true
      }
    }
  ],
  "priority": 1000000,
  "webhookUsed": true,
  "webhookForSlotFilling": false,
  "fallbackIntent": false,
  "events": [
    {
      "name": "NextQ"
    }
  ]
}