{
  "id": "4ba6d8e3-00fe-43a3-8919-28ed663f4638",
  "name": "platform",
  "isOverridable": true,
  "entries": [
    {
      "value": "@sdk:sdk ",
      "synonyms": [
        "@sdk:sdk "
      ]
    },
    {
      "value": "@integration:integration",
      "synonyms": [
        "@integration:integration"
      ]
    }
  ],
  "isEnum": true,
  "automatedExpansion": false
}