{
  "id": "bc0eb75a-e8dd-4e7c-9423-31bb8c340df6",
  "name": "sdk",
  "isOverridable": true,
  "entries": [
    {
      "value": "Android SDK",
      "synonyms": [
        "Android SDK",
        "Android"
      ]
    },
    {
      "value": "iOS SDK",
      "synonyms": [
        "iOS SDK",
        "ios"
      ]
    },
    {
      "value": "HTML",
      "synonyms": [
        "HTML"
      ]
    },
    {
      "value": "C#",
      "synonyms": [
        "C#"
      ]
    },
    {
      "value": "C++",
      "synonyms": [
        "C++"
      ]
    },
    {
      "value": "python",
      "synonyms": [
        "python"
      ]
    },
    {
      "value": "unity",
      "synonyms": [
        "unity"
      ]
    },
    {
      "value": "php",
      "synonyms": [
        "php"
      ]
    },
    {
      "value": "ruby",
      "synonyms": [
        "ruby"
      ]
    },
    {
      "value": "java",
      "synonyms": [
        "java"
      ]
    },
    {
      "value": "node js",
      "synonyms": [
        "node js"
      ]
    },
    {
      "value": "JavaScript",
      "synonyms": [
        "JavaScript"
      ]
    }
  ],
  "isEnum": false,
  "automatedExpansion": false
}